test/sim/dump.vcd
$date
	Wed Jul 16 17:04:00 2025
$end
$version
	ModelSim Version 10.5b
$end
$timescale
	1ns
$end

$scope module test_bench $end
$var reg 1 ! CLK $end

$scope module dut $end
$var parameter 2 " IDLE $end
$var parameter 2 # SEND_BYTE $end
$var parameter 2 $ SEND_PARITY $end
$var parameter 2 % DONE $end
$var reg 2 & state [1:0] $end
$var reg 9 ' data [8:0] $end
$var reg 4 ( bit_cnt [3:0] $end
$upscope $end
$upscope $end

$scope begin test_bench_sv_unit $end
$upscope $end

$scope begin std $end
$upscope $end
$enddefinitions $end
#0
$dumpvars
0!
b0 &
b0 '
b0 (
b0 "
b1 #
b10 $
b11 %
$end
#10
1!
#20
0!
#30
1!
#40
0!
#50
1!
#60
0!
#70
1!
#80
0!
#90
1!
#100
0!
#110
1!
#120
0!
#130
1!
#140
0!
#150
1!
#160
0!
#170
1!
#180
0!
#190
1!
#200
0!
#210
1!
#220
0!
#230
1!
#240
0!
#250
1!
#260
0!
#270
1!
#280
0!
#290
1!
#300
0!
#310
1!
#320
0!
#330
1!
#340
0!
#350
1!
#360
0!
#370
1!
#380
0!
#390
1!
#400
0!
#410
1!
#420
0!
#430
1!
#440
0!
#450
1!
#460
0!
#470
1!
#480
0!
#490
1!
b10100011 '
b1 &
#500
0!
#510
1!
b1 (
#520
0!
#530
1!
b10 (
#540
0!
#550
1!
b11 (
#560
0!
#570
1!
b100 (
#580
0!
#590
1!
b101 (
#600
0!
#610
1!
b110 (
#620
0!
#630
1!
b111 (
#640
0!
#650
1!
b1000 (
b11 &
#660
0!
#670
1!
b0 &
#680
0!
#690
1!
#700
0!
#710
1!
b0 (
b11111111 '
b1 &
#720
0!
#730
1!
b1 (
#740
0!
#750
1!
b10 (
#760
0!
#770
1!
b11 (
#780
0!
#790
1!
b100 (
#800
0!
#810
1!
b101 (
#820
0!
#830
1!
b110 (
#840
0!
#850
1!
b111 (
#860
0!
#870
1!
b1000 (
b11 &
#880
0!
#890
1!
b0 &
#900
0!
#910
1!
#920
0!
#930
1!
b0 (
b11110100 '
b1 &
#940
0!
#950
1!
b1 (
#960
0!
#970
1!
b10 (
#980
0!
#990
1!
b11 (
#1000
0!
#1010
1!
b100 (
#1020
0!
#1030
1!
b101 (
#1040
0!
#1050
1!
b110 (
#1060
0!
#1070
1!
b111 (
#1080
0!
#1090
1!
b1000 (
b10 &
#1100
0!
#1110
1!
b11 &
#1120
0!
#1130
1!
b0 &
#1140
0!
#1150
1!
b0 (
b1001111 '
b101001111 '
b1 &
#1160
0!
#1170
1!
b1 (
#1180
0!
#1190
1!
b10 (
#1200
0!
#1210
1!
b11 (
#1220
0!
#1230
1!
b100 (
#1240
0!
#1250
1!
b101 (
#1260
0!
#1270
1!
b110 (
#1280
0!
#1290
1!
b111 (
#1300
0!
#1310
1!
b1000 (
b10 &
#1320
0!
#1330
1!
b11 &
#1340
0!
#1350
1!
b0 &
